20160805 RTS11 Q0 761357129517109248 1 19,336536 Run-ID
20160802 RTS11 Q0 760390917052301312 2 17,488871 Run-ID
20160805 RTS11 Q0 761410833381326848 3 16,017870 Run-ID
20160805 RTS11 Q0 761401912092532741 4 12,472780 Run-ID
20160808 RTS11 Q0 762449963783598082 5 10,968761 Run-ID
20160810 RTS11 Q0 763437302970396672 6 10,968761 Run-ID
20160802 RTS11 Q0 760449540826787840 7 10,914336 Run-ID
20160803 RTS11 Q0 760778885986267136 8 10,543851 Run-ID
20160805 RTS11 Q0 761354965231083520 9 10,449160 Run-ID
20160804 RTS11 Q0 761246345353105408 10 10,449160 Run-ID
20160803 RTS11 Q0 760782518241157120 11 10,449160 Run-ID
20160811 RTS11 Q0 763542546446360577 12 10,449160 Run-ID
20160808 RTS11 Q0 762706533570543616 13 10,138751 Run-ID
20160805 RTS11 Q0 761353035842859009 14 9,976560 Run-ID
20160805 RTS11 Q0 761356865242558464 15 9,544859 Run-ID
20160811 RTS11 Q0 763848357341040641 16 9,544859 Run-ID
20160809 RTS11 Q0 762826247399505924 17 9,386001 Run-ID
20160802 RTS11 Q0 760290429917093888 18 9,291883 Run-ID
20160805 RTS11 Q0 761689591015313408 19 9,148972 Run-ID
20160808 RTS11 Q0 762478178883375104 20 8,805650 Run-ID
20160805 RTS11 Q0 761563464103899137 21 8,784615 Run-ID
20160803 RTS11 Q0 760671830545985536 22 8,448168 Run-ID
20160807 RTS11 Q0 762077589305294848 23 8,367775 Run-ID
20160805 RTS11 Q0 761630132574392320 24 8,046486 Run-ID
20160810 RTS11 Q0 763462410065682432 25 7,847088 Run-ID
20160803 RTS11 Q0 760632479594065921 26 7,737227 Run-ID
20160805 RTS11 Q0 761595437266636800 27 7,730731 Run-ID
20160802 RTS11 Q0 760514300884709377 28 7,730731 Run-ID
20160807 RTS11 Q0 762060979836424192 29 7,682555 Run-ID
20160808 RTS11 Q0 762451188520411136 30 7,610851 Run-ID
20160810 RTS11 Q0 763495784121765889 31 7,489195 Run-ID
20160804 RTS11 Q0 761313529727217664 32 7,350120 Run-ID
20160803 RTS11 Q0 760913753806409729 33 7,350120 Run-ID
20160811 RTS11 Q0 763791637751275520 34 7,325858 Run-ID
20160807 RTS11 Q0 762117502272798720 35 7,281518 Run-ID
20160805 RTS11 Q0 761358798854295553 36 7,281518 Run-ID
20160805 RTS11 Q0 761508120241770496 37 7,281518 Run-ID
20160811 RTS11 Q0 763546027722805248 38 7,281518 Run-ID
20160805 RTS11 Q0 761543314659082240 39 7,045262 Run-ID
20160810 RTS11 Q0 763269899883913216 40 7,045262 Run-ID
20160807 RTS11 Q0 762101731694112768 41 6,873450 Run-ID
20160804 RTS11 Q0 761185683121725440 42 6,873450 Run-ID
20160811 RTS11 Q0 763569033476186114 43 6,873450 Run-ID
20160805 RTS11 Q0 761405833745801217 44 6,867678 Run-ID
20160803 RTS11 Q0 760693435410055168 45 6,867678 Run-ID
20160807 RTS11 Q0 762071541114769408 46 6,764686 Run-ID
20160807 RTS11 Q0 762331566966132736 47 6,653108 Run-ID
20160805 RTS11 Q0 761637686511742977 48 6,653108 Run-ID
20160806 RTS11 Q0 761704879232614400 49 6,653108 Run-ID
20160809 RTS11 Q0 762914273257459712 50 6,638018 Run-ID
20160808 RTS11 Q0 762623301797683201 51 6,450098 Run-ID
20160810 RTS11 Q0 763490218288840705 52 6,450098 Run-ID
20160804 RTS11 Q0 761060390889324544 53 6,450098 Run-ID
20160803 RTS11 Q0 760713182184873984 54 6,450098 Run-ID
20160811 RTS11 Q0 763723283187597312 55 6,450098 Run-ID
20160807 RTS11 Q0 762066923186229248 56 6,441378 Run-ID
20160807 RTS11 Q0 762230329088311296 57 6,441378 Run-ID
20160809 RTS11 Q0 763066832689463296 58 6,441378 Run-ID
20160808 RTS11 Q0 762677286671900676 59 6,441378 Run-ID
20160804 RTS11 Q0 761162354423894016 60 6,441378 Run-ID
20160803 RTS11 Q0 760954824456187904 61 6,265630 Run-ID
20160807 RTS11 Q0 762380426438647808 62 6,252252 Run-ID
20160802 RTS11 Q0 760450400675729410 63 6,252252 Run-ID
20160802 RTS11 Q0 760303054751014912 64 6,207150 Run-ID
20160809 RTS11 Q0 762957562643898368 65 6,112573 Run-ID
20160809 RTS11 Q0 762937610343972864 66 6,112573 Run-ID
20160808 RTS11 Q0 762748686308876288 67 6,112573 Run-ID
20160810 RTS11 Q0 763380851837169664 68 6,112573 Run-ID
20160803 RTS11 Q0 760619468888342528 69 6,112573 Run-ID
20160805 RTS11 Q0 761544631662284800 70 6,069409 Run-ID
20160807 RTS11 Q0 762349053023629312 71 6,064909 Run-ID
20160807 RTS11 Q0 762361170372231168 72 6,064909 Run-ID
20160809 RTS11 Q0 762887303857512449 73 6,064909 Run-ID
20160809 RTS11 Q0 763023933348024320 74 6,064909 Run-ID
20160810 RTS11 Q0 763439211387166721 75 6,064909 Run-ID
20160810 RTS11 Q0 763501794584559616 76 6,064909 Run-ID
20160810 RTS11 Q0 763155110193164289 77 6,064909 Run-ID
20160806 RTS11 Q0 761949579138863104 78 6,064909 Run-ID
20160806 RTS11 Q0 761719173424656387 79 6,064909 Run-ID
20160804 RTS11 Q0 761179458791469059 80 6,064909 Run-ID
20160802 RTS11 Q0 760610505635442688 81 6,064909 Run-ID
20160805 RTS11 Q0 761577607292915712 82 5,896955 Run-ID
20160808 RTS11 Q0 762439360604102656 83 5,896955 Run-ID
20160804 RTS11 Q0 761331250627944448 84 5,896955 Run-ID
20160803 RTS11 Q0 760616415401484290 85 5,896955 Run-ID
20160811 RTS11 Q0 763777016411947008 86 5,896955 Run-ID
20160811 RTS11 Q0 763646997194760192 87 5,896955 Run-ID
20160807 RTS11 Q0 762180760790904832 88 5,808615 Run-ID
20160809 RTS11 Q0 762875132004093952 89 5,808615 Run-ID
20160809 RTS11 Q0 762991905617481728 90 5,808615 Run-ID
20160808 RTS11 Q0 762462206965325828 91 5,808615 Run-ID
20160810 RTS11 Q0 763355522422611968 92 5,808615 Run-ID
20160810 RTS11 Q0 763402326639906816 93 5,808615 Run-ID
20160802 RTS11 Q0 760519866713464832 94 5,808615 Run-ID
20160803 RTS11 Q0 760732186584682496 95 5,808615 Run-ID
20160809 RTS11 Q0 762801580693295105 96 5,734032 Run-ID
20160804 RTS11 Q0 761299713660452864 97 5,734032 Run-ID
20160804 RTS11 Q0 761164002785230848 98 5,734032 Run-ID
20160807 RTS11 Q0 762102344083386368 99 5,730014 Run-ID
