20160802 RTS28 Q0 760472643078385664 1 20,807289 Run-ID
20160803 RTS28 Q0 760694723082391554 2 19,604845 Run-ID
20160803 RTS28 Q0 760734594144411648 3 11,422699 Run-ID
20160810 RTS28 Q0 763389563377033217 4 10,698674 Run-ID
20160802 RTS28 Q0 760484911392301059 5 10,626883 Run-ID
20160802 RTS28 Q0 760481576941563904 6 10,626883 Run-ID
20160809 RTS28 Q0 763103616718761984 7 10,235727 Run-ID
20160804 RTS28 Q0 761157820389560320 8 9,460707 Run-ID
20160811 RTS28 Q0 763792191403782144 9 9,059656 Run-ID
20160803 RTS28 Q0 760948461667815425 10 8,787521 Run-ID
20160805 RTS28 Q0 761367233599721472 11 8,579124 Run-ID
20160809 RTS28 Q0 763009395873624064 12 8,423045 Run-ID
20160810 RTS28 Q0 763357057516834816 13 8,423045 Run-ID
20160809 RTS28 Q0 762928315774545920 14 8,087599 Run-ID
20160804 RTS28 Q0 761332911601745920 15 8,087599 Run-ID
20160802 RTS28 Q0 760492532442787840 16 8,087599 Run-ID
20160803 RTS28 Q0 760920556963258368 17 7,631012 Run-ID
20160811 RTS28 Q0 763564478449328128 18 7,631012 Run-ID
20160810 RTS28 Q0 763182310250323968 19 7,625666 Run-ID
20160806 RTS28 Q0 761721396410089472 20 7,625666 Run-ID
20160804 RTS28 Q0 761133661190234112 21 7,625666 Run-ID
20160802 RTS28 Q0 760463033915310080 22 7,625666 Run-ID
20160804 RTS28 Q0 760994200561324034 23 7,226624 Run-ID
20160804 RTS28 Q0 761025053882404864 24 7,226624 Run-ID
20160811 RTS28 Q0 763589438765137920 25 7,226624 Run-ID
20160804 RTS28 Q0 761151998695583744 26 6,867269 Run-ID
20160803 RTS28 Q0 760926613571796995 27 6,867269 Run-ID
20160809 RTS28 Q0 763137930332282880 28 6,832685 Run-ID
20160808 RTS28 Q0 762629115111313408 29 6,832685 Run-ID
20160803 RTS28 Q0 760698015615180801 30 6,832685 Run-ID
20160808 RTS28 Q0 762629178030030848 31 6,570997 Run-ID
20160807 RTS28 Q0 762135923693907968 32 6,541959 Run-ID
20160807 RTS28 Q0 762107175909007360 33 6,541959 Run-ID
20160804 RTS28 Q0 761194583464173568 34 6,541959 Run-ID
20160804 RTS28 Q0 761005206444343296 35 6,541959 Run-ID
20160803 RTS28 Q0 760957324240490502 36 6,541959 Run-ID
20160803 RTS28 Q0 760851128649121792 37 6,541959 Run-ID
20160803 RTS28 Q0 760676037462200320 38 6,541959 Run-ID
20160805 RTS28 Q0 761552948958814208 39 6,246076 Run-ID
20160810 RTS28 Q0 763405250078253056 40 6,246076 Run-ID
20160802 RTS28 Q0 760414249965551616 41 6,246076 Run-ID
20160803 RTS28 Q0 760845055305199617 42 6,246076 Run-ID
20160809 RTS28 Q0 763036457514651650 43 5,975800 Run-ID
20160808 RTS28 Q0 762580377298989056 44 5,975800 Run-ID
20160802 RTS28 Q0 760398806542266368 45 5,975800 Run-ID
20160811 RTS28 Q0 763587295446441985 46 5,975800 Run-ID
20160809 RTS28 Q0 763044267321389057 47 5,727943 Run-ID
20160806 RTS28 Q0 761777331665006596 48 5,727943 Run-ID
20160803 RTS28 Q0 760786548958822400 49 5,727943 Run-ID
20160808 RTS28 Q0 762467617642729472 50 5,499829 Run-ID
20160805 RTS28 Q0 761658356012572673 51 5,289188 Run-ID
20160810 RTS28 Q0 763474179266080768 52 5,289188 Run-ID
20160804 RTS28 Q0 760981181454311424 53 5,289188 Run-ID
20160803 RTS28 Q0 760691560551964673 54 5,289188 Run-ID
20160811 RTS28 Q0 763636003911245824 55 5,289188 Run-ID
20160807 RTS28 Q0 762237484554186752 56 5,094086 Run-ID
20160808 RTS28 Q0 762612400793288705 57 5,094086 Run-ID
20160803 RTS28 Q0 760819029674045441 58 5,094086 Run-ID
20160811 RTS28 Q0 763645583722590209 59 5,094086 Run-ID
20160811 RTS28 Q0 763766446757449728 60 5,094086 Run-ID
20160802 RTS28 Q0 760283186345680896 61 5,061539 Run-ID
20160802 RTS28 Q0 760269575837487104 62 4,961247 Run-ID
20160806 RTS28 Q0 761792334660898817 63 4,912867 Run-ID
20160802 RTS28 Q0 760492473730736133 64 4,912867 Run-ID
20160806 RTS28 Q0 761847888225898500 65 4,807269 Run-ID
20160810 RTS28 Q0 763432760526704640 66 4,781042 Run-ID
20160806 RTS28 Q0 761989009778286593 67 4,781042 Run-ID
20160803 RTS28 Q0 760884049762222081 68 4,781042 Run-ID
20160803 RTS28 Q0 760911677659504640 69 4,781042 Run-ID
20160803 RTS28 Q0 760867121547079680 70 4,781042 Run-ID
20160803 RTS28 Q0 760859869591265281 71 4,781042 Run-ID
20160811 RTS28 Q0 763642219890937857 72 4,781042 Run-ID
20160802 RTS28 Q0 760275288496410624 73 4,778812 Run-ID
20160807 RTS28 Q0 762076859500601344 74 4,722397 Run-ID
20160805 RTS28 Q0 761639607477866497 75 4,609318 Run-ID
20160806 RTS28 Q0 761977458673475584 76 4,609318 Run-ID
20160802 RTS28 Q0 760520009323978758 77 4,609318 Run-ID
20160805 RTS28 Q0 761525790869684224 78 4,547261 Run-ID
20160811 RTS28 Q0 763783538546241540 79 4,476116 Run-ID
20160805 RTS28 Q0 761376674969780224 80 4,453370 Run-ID
20160807 RTS28 Q0 762113756776263680 81 4,451435 Run-ID
20160805 RTS28 Q0 761401786246856704 82 4,451435 Run-ID
20160805 RTS28 Q0 761373671831240704 83 4,451435 Run-ID
20160803 RTS28 Q0 760933609666732032 84 4,451435 Run-ID
20160811 RTS28 Q0 763767864432136192 85 4,451435 Run-ID
20160811 RTS28 Q0 763519305812180992 86 4,451435 Run-ID
20160807 RTS28 Q0 762335518017277954 87 4,402444 Run-ID
20160805 RTS28 Q0 761436234082349056 88 4,402444 Run-ID
20160805 RTS28 Q0 761643172648869888 89 4,402444 Run-ID
20160805 RTS28 Q0 761475199166451712 90 4,402444 Run-ID
20160805 RTS28 Q0 761585404478914561 91 4,402444 Run-ID
20160805 RTS28 Q0 761528223566065668 92 4,402444 Run-ID
