20160809 RTS33 Q0 762809210123853824 1 11,595713 Run-ID
20160809 RTS33 Q0 762808983652532224 2 10,313375 Run-ID
20160809 RTS33 Q0 763084796880977920 3 9,875524 Run-ID
20160804 RTS33 Q0 761309658367668226 4 8,622002 Run-ID
20160809 RTS33 Q0 763098344470122496 5 8,268830 Run-ID
20160805 RTS33 Q0 761351542683369472 6 8,237109 Run-ID
20160804 RTS33 Q0 761040040134705152 7 8,237109 Run-ID
20160810 RTS33 Q0 763402565740625920 8 8,196692 Run-ID
20160807 RTS33 Q0 762381730858754048 9 8,118084 Run-ID
20160809 RTS33 Q0 762841472731262979 10 7,909067 Run-ID
20160805 RTS33 Q0 761642098902695936 11 7,824800 Run-ID
20160804 RTS33 Q0 761172546590957568 12 7,789099 Run-ID
20160804 RTS33 Q0 761276078778359808 13 7,669817 Run-ID
20160810 RTS33 Q0 763400464373280768 14 7,420121 Run-ID
20160806 RTS33 Q0 761958420719165441 15 7,420121 Run-ID
20160805 RTS33 Q0 761337630164291584 16 7,273294 Run-ID
20160805 RTS33 Q0 761365513914036225 17 7,268466 Run-ID
20160808 RTS33 Q0 762785109653262336 18 7,268466 Run-ID
20160810 RTS33 Q0 763322429351399428 19 7,268466 Run-ID
20160804 RTS33 Q0 761321662474285057 20 7,268466 Run-ID
20160807 RTS33 Q0 762185332586602496 21 7,084520 Run-ID
20160810 RTS33 Q0 763330415323181056 22 7,084520 Run-ID
20160810 RTS33 Q0 763185745402195968 23 7,084520 Run-ID
20160811 RTS33 Q0 763602059425820672 24 7,084520 Run-ID
20160809 RTS33 Q0 762952860837384193 25 6,907030 Run-ID
20160808 RTS33 Q0 762632848025190400 26 6,907030 Run-ID
20160808 RTS33 Q0 762546550249697280 27 6,907030 Run-ID
20160806 RTS33 Q0 762002343462375424 28 6,907030 Run-ID
20160806 RTS33 Q0 761744901285507072 29 6,907030 Run-ID
20160804 RTS33 Q0 761201541814505472 30 6,907030 Run-ID
20160805 RTS33 Q0 761520136951967744 31 6,777963 Run-ID
20160806 RTS33 Q0 762055514658340864 32 6,777963 Run-ID
20160803 RTS33 Q0 760921983051788288 33 6,777963 Run-ID
20160811 RTS33 Q0 763566705612161024 34 6,743864 Run-ID
20160807 RTS33 Q0 762075362104717313 35 6,739139 Run-ID
20160809 RTS33 Q0 762982590060126212 36 6,739139 Run-ID
20160809 RTS33 Q0 763112353432948736 37 6,739139 Run-ID
20160807 RTS33 Q0 762336424007839744 38 6,579836 Run-ID
20160805 RTS33 Q0 761545655059963904 39 6,579836 Run-ID
20160809 RTS33 Q0 763118233851494400 40 6,579836 Run-ID
20160810 RTS33 Q0 763401873671921664 41 6,579836 Run-ID
20160802 RTS33 Q0 760431366903398402 42 6,579836 Run-ID
20160811 RTS33 Q0 763586838267174912 43 6,562550 Run-ID
20160806 RTS33 Q0 761733325035827200 44 6,496836 Run-ID
20160804 RTS33 Q0 761154469123989504 45 6,496836 Run-ID
20160802 RTS33 Q0 760485515401523200 46 6,496836 Run-ID
20160805 RTS33 Q0 761562855934164992 47 6,386488 Run-ID
20160808 RTS33 Q0 762681317402087425 48 6,386488 Run-ID
20160806 RTS33 Q0 761742044981329920 49 6,386488 Run-ID
20160804 RTS33 Q0 761156515940020225 50 6,386488 Run-ID
20160803 RTS33 Q0 760865464797003776 51 6,386488 Run-ID
20160811 RTS33 Q0 763606329210449920 52 6,386488 Run-ID
20160807 RTS33 Q0 762340966401503232 53 6,282240 Run-ID
20160807 RTS33 Q0 762359522019147776 54 6,282240 Run-ID
20160809 RTS33 Q0 762848649168629765 55 6,282240 Run-ID
20160808 RTS33 Q0 762469542807207938 56 6,282240 Run-ID
20160810 RTS33 Q0 763404604172341248 57 6,282240 Run-ID
20160806 RTS33 Q0 761716740753461249 58 6,282240 Run-ID
20160804 RTS33 Q0 760991138736070656 59 6,282240 Run-ID
20160802 RTS33 Q0 760327553710190592 60 6,282240 Run-ID
20160805 RTS33 Q0 761642094691835904 61 6,238101 Run-ID
20160808 RTS33 Q0 762623708640882688 62 6,238101 Run-ID
20160810 RTS33 Q0 763434824145272832 63 6,238101 Run-ID
20160811 RTS33 Q0 763606257915748352 64 6,238101 Run-ID
20160809 RTS33 Q0 763081072347189248 65 6,076780 Run-ID
20160802 RTS33 Q0 760436731434983424 66 6,076780 Run-ID
20160807 RTS33 Q0 762243029432279040 67 6,068910 Run-ID
20160809 RTS33 Q0 763017427953352704 68 6,068910 Run-ID
20160808 RTS33 Q0 762704126018977792 69 6,068910 Run-ID
20160808 RTS33 Q0 762594273028141056 70 6,068910 Run-ID
20160810 RTS33 Q0 763181899191812096 71 6,068910 Run-ID
20160806 RTS33 Q0 761906482661068800 72 6,068910 Run-ID
20160804 RTS33 Q0 761151998695583744 73 6,068910 Run-ID
20160804 RTS33 Q0 761159430989905920 74 6,068910 Run-ID
20160802 RTS33 Q0 760578633144659969 75 6,068910 Run-ID
20160802 RTS33 Q0 760397275604615168 76 6,068910 Run-ID
20160803 RTS33 Q0 760971803007262720 77 6,068910 Run-ID
20160807 RTS33 Q0 762112917911199744 78 6,010398 Run-ID
20160807 RTS33 Q0 762341209700306944 79 6,010398 Run-ID
20160805 RTS33 Q0 761383507486736385 80 6,010398 Run-ID
20160808 RTS33 Q0 762474945058177024 81 6,010398 Run-ID
20160810 RTS33 Q0 763182125717688320 82 6,010398 Run-ID
20160810 RTS33 Q0 763172462003716096 83 6,010398 Run-ID
20160804 RTS33 Q0 761098076702380032 84 6,010398 Run-ID
20160804 RTS33 Q0 761138497218416640 85 6,010398 Run-ID
20160802 RTS33 Q0 760478133401169920 86 6,010398 Run-ID
20160802 RTS33 Q0 760480947787685888 87 6,010398 Run-ID
20160811 RTS33 Q0 763738122630881280 88 6,010398 Run-ID
20160807 RTS33 Q0 762255759132483584 89 5,999184 Run-ID
20160805 RTS33 Q0 761552600864927744 90 5,999184 Run-ID
20160803 RTS33 Q0 760830647871176704 91 5,999184 Run-ID
20160810 RTS33 Q0 763220226758455297 92 5,846681 Run-ID
20160806 RTS33 Q0 761880377296314368 93 5,846681 Run-ID
20160805 RTS33 Q0 761383599757266944 94 5,844793 Run-ID
20160805 RTS33 Q0 761568694384287744 95 5,844793 Run-ID
20160809 RTS33 Q0 763146889357242368 96 5,844793 Run-ID
20160808 RTS33 Q0 762726246782410753 97 5,844793 Run-ID
20160803 RTS33 Q0 760854429604122624 98 5,844793 Run-ID
20160803 RTS33 Q0 760698623772491776 99 5,844793 Run-ID
20160811 RTS33 Q0 763601753216462848 100 5,844793 Run-ID
