20160804 RTS39 Q0 761087817422254080 1 14,515171 Run-ID
20160802 RTS39 Q0 760502024169517057 2 14,515171 Run-ID
20160803 RTS39 Q0 760770992281161728 3 14,515171 Run-ID
20160803 RTS39 Q0 760915267983736832 4 13,827572 Run-ID
20160803 RTS39 Q0 760784888005922816 5 12,107008 Run-ID
20160810 RTS39 Q0 763398224610668544 6 10,049603 Run-ID
20160809 RTS39 Q0 762968635639865345 7 9,210180 Run-ID
20160811 RTS39 Q0 763761824655368192 8 8,728224 Run-ID
20160810 RTS39 Q0 763330608244387840 9 8,294199 Run-ID
20160811 RTS39 Q0 763793202230857729 10 7,901294 Run-ID
20160805 RTS39 Q0 761349495875526657 11 7,771720 Run-ID
20160811 RTS39 Q0 763536707958562816 12 7,543930 Run-ID
20160809 RTS39 Q0 763100177393561600 13 7,317161 Run-ID
20160808 RTS39 Q0 762593731975360512 14 7,311736 Run-ID
20160809 RTS39 Q0 763123971659296768 15 7,217493 Run-ID
20160802 RTS39 Q0 760428800018518016 16 7,217493 Run-ID
20160805 RTS39 Q0 761388255434596352 17 7,109254 Run-ID
20160803 RTS39 Q0 760634866144833536 18 7,109254 Run-ID
20160806 RTS39 Q0 761985851484090369 19 6,918136 Run-ID
20160807 RTS39 Q0 762414287059025921 20 6,907994 Run-ID
20160810 RTS39 Q0 763149103949832193 21 6,907994 Run-ID
20160806 RTS39 Q0 762055627937947648 22 6,907994 Run-ID
20160808 RTS39 Q0 762524857292627968 23 6,726980 Run-ID
20160810 RTS39 Q0 763394894358458369 24 6,642622 Run-ID
20160805 RTS39 Q0 761625015515131904 25 6,546507 Run-ID
20160809 RTS39 Q0 762809977702612992 26 6,546507 Run-ID
20160809 RTS39 Q0 762802683812179968 27 6,546507 Run-ID
20160808 RTS39 Q0 762505156642557952 28 6,546507 Run-ID
20160808 RTS39 Q0 762668898059714560 29 6,546507 Run-ID
20160808 RTS39 Q0 762671746012950528 30 6,546507 Run-ID
20160806 RTS39 Q0 762041153382342656 31 6,546507 Run-ID
20160806 RTS39 Q0 761764509677654021 32 6,546507 Run-ID
20160804 RTS39 Q0 761028543543332864 33 6,546507 Run-ID
20160807 RTS39 Q0 762355189319958532 34 6,220972 Run-ID
20160805 RTS39 Q0 761429082789806080 35 6,220972 Run-ID
20160809 RTS39 Q0 762808195089833984 36 6,220972 Run-ID
20160809 RTS39 Q0 762923467150794752 37 6,220972 Run-ID
20160808 RTS39 Q0 762751039346925568 38 6,220972 Run-ID
20160810 RTS39 Q0 763322152548458496 39 6,220972 Run-ID
20160804 RTS39 Q0 761190699526135808 40 6,220972 Run-ID
20160802 RTS39 Q0 760466229953822722 41 6,220972 Run-ID
20160803 RTS39 Q0 760733746857439232 42 6,220972 Run-ID
20160803 RTS39 Q0 760852378568552449 43 6,220972 Run-ID
20160803 RTS39 Q0 760842010261610496 44 6,220972 Run-ID
20160811 RTS39 Q0 763640735086239748 45 6,220972 Run-ID
20160811 RTS39 Q0 763856427177869312 46 6,220972 Run-ID
20160811 RTS39 Q0 763674532779524096 47 6,220972 Run-ID
20160805 RTS39 Q0 761388557424525312 48 5,926278 Run-ID
20160809 RTS39 Q0 762865279571402752 49 5,926278 Run-ID
20160808 RTS39 Q0 762439847126536193 50 5,926278 Run-ID
20160810 RTS39 Q0 763460753319919616 51 5,926278 Run-ID
20160806 RTS39 Q0 762042160002764802 52 5,926278 Run-ID
20160803 RTS39 Q0 760819369396015104 53 5,926278 Run-ID
20160803 RTS39 Q0 760784451815124993 54 5,926278 Run-ID
20160803 RTS39 Q0 760925745321484289 55 5,926278 Run-ID
20160811 RTS39 Q0 763852937529466880 56 5,926278 Run-ID
20160811 RTS39 Q0 763649094338351104 57 5,926278 Run-ID
20160811 RTS39 Q0 763567955539927045 58 5,926278 Run-ID
20160807 RTS39 Q0 762063408338460672 59 5,658241 Run-ID
20160809 RTS39 Q0 763080971675639810 60 5,658241 Run-ID
20160809 RTS39 Q0 763034666559352832 61 5,658241 Run-ID
20160809 RTS39 Q0 762969029875273728 62 5,658241 Run-ID
20160808 RTS39 Q0 762749948819406848 63 5,658241 Run-ID
20160808 RTS39 Q0 762760384243724288 64 5,658241 Run-ID
20160804 RTS39 Q0 761010398979985408 65 5,658241 Run-ID
20160802 RTS39 Q0 760348428769566720 66 5,658241 Run-ID
20160803 RTS39 Q0 760648992560705537 67 5,658241 Run-ID
20160811 RTS39 Q0 763714592585289729 68 5,658241 Run-ID
20160811 RTS39 Q0 763770569762435072 69 5,658241 Run-ID
20160811 RTS39 Q0 763737321510428672 70 5,658241 Run-ID
20160811 RTS39 Q0 763526415128023040 71 5,658241 Run-ID
20160807 RTS39 Q0 762076876282142720 72 5,413401 Run-ID
20160807 RTS39 Q0 762062682744840192 73 5,413401 Run-ID
20160807 RTS39 Q0 762115069580681217 74 5,413401 Run-ID
20160805 RTS39 Q0 761367938213351424 75 5,413401 Run-ID
20160805 RTS39 Q0 761358358414843904 76 5,413401 Run-ID
20160805 RTS39 Q0 761359763535953920 77 5,413401 Run-ID
20160810 RTS39 Q0 763227382241169408 78 5,413401 Run-ID
20160804 RTS39 Q0 761305459886215168 79 5,413401 Run-ID
20160811 RTS39 Q0 763551002154954753 80 5,413401 Run-ID
20160811 RTS39 Q0 763594962646790144 81 5,413401 Run-ID
20160807 RTS39 Q0 762095314421415936 82 5,188871 Run-ID
20160807 RTS39 Q0 762063391573807104 83 5,188871 Run-ID
20160805 RTS39 Q0 761570992867057665 84 5,188871 Run-ID
20160809 RTS39 Q0 762832488506851330 85 5,188871 Run-ID
20160808 RTS39 Q0 762501130131677184 86 5,188871 Run-ID
20160804 RTS39 Q0 761333804975796224 87 5,188871 Run-ID
20160804 RTS39 Q0 761043710125539328 88 5,188871 Run-ID
20160802 RTS39 Q0 760477030299291649 89 5,188871 Run-ID
20160811 RTS39 Q0 763694522832265216 90 5,188871 Run-ID
20160805 RTS39 Q0 761486905443659776 91 4,982225 Run-ID
20160809 RTS39 Q0 763063368169119745 92 4,982225 Run-ID
20160808 RTS39 Q0 762461972109459458 93 4,982225 Run-ID
20160810 RTS39 Q0 763335985358778368 94 4,982225 Run-ID
20160810 RTS39 Q0 763199691462942722 95 4,982225 Run-ID
20160806 RTS39 Q0 761994995050029056 96 4,982225 Run-ID
20160802 RTS39 Q0 760484735256662016 97 4,982225 Run-ID
20160811 RTS39 Q0 763827113174577153 98 4,982225 Run-ID
20160811 RTS39 Q0 763531704174776320 99 4,982225 Run-ID
