20160811 RTS4 Q0 763770603312648192 1 17,340590 Run-ID
20160807 RTS4 Q0 762078369429200896 2 16,638084 Run-ID
20160807 RTS4 Q0 762121621087870976 3 16,578968 Run-ID
20160809 RTS4 Q0 763098306725621760 4 16,327110 Run-ID
20160808 RTS4 Q0 762445014509117440 5 16,327110 Run-ID
20160808 RTS4 Q0 762696077162274816 6 16,327110 Run-ID
20160810 RTS4 Q0 763506982951190528 7 16,327110 Run-ID
20160806 RTS4 Q0 761995250931937280 8 16,327110 Run-ID
20160808 RTS4 Q0 762446776108363778 9 15,425556 Run-ID
20160808 RTS4 Q0 762733913999413248 10 15,425556 Run-ID
20160810 RTS4 Q0 763450322090065920 11 15,425556 Run-ID
20160810 RTS4 Q0 763187997743259648 12 15,425556 Run-ID
20160810 RTS4 Q0 763160323712966656 13 15,425556 Run-ID
20160806 RTS4 Q0 761904054146478084 14 15,425556 Run-ID
20160806 RTS4 Q0 761996341446840321 15 15,425556 Run-ID
20160806 RTS4 Q0 761733069145567232 16 15,425556 Run-ID
20160811 RTS4 Q0 763770506839400448 17 15,425556 Run-ID
20160811 RTS4 Q0 763770322315190272 18 15,425556 Run-ID
20160811 RTS4 Q0 763750298695245824 19 15,425556 Run-ID
20160811 RTS4 Q0 763762193766678528 20 15,425556 Run-ID
20160811 RTS4 Q0 763579275945447425 21 15,425556 Run-ID
20160807 RTS4 Q0 762081276102844416 22 14,618356 Run-ID
20160807 RTS4 Q0 762079061480988673 23 14,618356 Run-ID
20160807 RTS4 Q0 762297240811474944 24 14,618356 Run-ID
20160805 RTS4 Q0 761665092077297664 25 14,618356 Run-ID
20160809 RTS4 Q0 763104518485618688 26 14,618356 Run-ID
20160810 RTS4 Q0 763229181576568833 27 14,618356 Run-ID
20160806 RTS4 Q0 761938388752695297 28 14,618356 Run-ID
20160806 RTS4 Q0 762054394774945793 29 14,618356 Run-ID
20160811 RTS4 Q0 763574205061488640 30 14,618356 Run-ID
20160811 RTS4 Q0 763542206712049664 31 14,618356 Run-ID
20160807 RTS4 Q0 762263380203712514 32 14,329441 Run-ID
20160811 RTS4 Q0 763593305892401153 33 14,329441 Run-ID
20160808 RTS4 Q0 762525683583156224 34 13,891435 Run-ID
20160808 RTS4 Q0 762440245602230273 35 13,891435 Run-ID
20160804 RTS4 Q0 761118863694057473 36 13,491757 Run-ID
20160806 RTS4 Q0 762025173075636224 37 13,343684 Run-ID
20160807 RTS4 Q0 762121713354149888 38 13,233383 Run-ID
20160808 RTS4 Q0 762539403138957312 39 13,233383 Run-ID
20160811 RTS4 Q0 763799002953486338 40 13,233383 Run-ID
20160811 RTS4 Q0 763765083629580288 41 13,233383 Run-ID
20160806 RTS4 Q0 761985742423875585 42 13,208876 Run-ID
20160811 RTS4 Q0 763539249715118080 43 13,140768 Run-ID
20160807 RTS4 Q0 762081766832238593 44 13,139331 Run-ID
20160808 RTS4 Q0 762442351130189824 45 13,139331 Run-ID
20160810 RTS4 Q0 763170939500687360 46 13,139331 Run-ID
20160810 RTS4 Q0 763204233885736960 47 13,112734 Run-ID
20160807 RTS4 Q0 762101706557526017 48 13,079416 Run-ID
20160803 RTS4 Q0 760912399075385344 49 12,719650 Run-ID
20160807 RTS4 Q0 762078717573079040 50 12,634856 Run-ID
20160810 RTS4 Q0 763356868777381890 51 12,634856 Run-ID
20160804 RTS4 Q0 761272043841040384 52 12,634856 Run-ID
20160802 RTS4 Q0 760536320968126464 53 12,634856 Run-ID
20160811 RTS4 Q0 763726554744627201 54 12,634856 Run-ID
20160809 RTS4 Q0 762874855175753728 55 12,460682 Run-ID
20160807 RTS4 Q0 762077778032390144 56 12,371396 Run-ID
20160805 RTS4 Q0 761668644673683457 57 12,371396 Run-ID
20160809 RTS4 Q0 762801228363526145 58 12,371396 Run-ID
20160808 RTS4 Q0 762442133043240960 59 12,371396 Run-ID
20160808 RTS4 Q0 762439717103165440 60 12,371396 Run-ID
20160808 RTS4 Q0 762683200665690112 61 12,371396 Run-ID
20160804 RTS4 Q0 761171430893559808 62 12,371396 Run-ID
20160809 RTS4 Q0 763021072820154368 63 12,134196 Run-ID
20160807 RTS4 Q0 762120929048666112 64 12,088128 Run-ID
20160807 RTS4 Q0 762323748783611904 65 12,088128 Run-ID
20160810 RTS4 Q0 763373675382923264 66 12,088128 Run-ID
20160806 RTS4 Q0 761917429790289920 67 12,088128 Run-ID
20160806 RTS4 Q0 761888543643996162 68 12,088128 Run-ID
20160809 RTS4 Q0 763042572797407232 69 11,947487 Run-ID
20160809 RTS4 Q0 763019621582581762 70 11,870405 Run-ID
20160804 RTS4 Q0 761118666549190656 71 11,696464 Run-ID
20160808 RTS4 Q0 762440866338189312 72 11,688269 Run-ID
20160808 RTS4 Q0 762746958272401408 73 11,688269 Run-ID
20160810 RTS4 Q0 763173900666691584 74 11,688269 Run-ID
20160807 RTS4 Q0 762367201810718722 75 11,586754 Run-ID
20160810 RTS4 Q0 763508845222072321 76 11,586754 Run-ID
20160810 RTS4 Q0 763195799140458496 77 11,451945 Run-ID
20160808 RTS4 Q0 762444716709322752 78 11,447337 Run-ID
20160809 RTS4 Q0 762834807952842753 79 11,404146 Run-ID
20160808 RTS4 Q0 762690846881964032 80 11,125313 Run-ID
20160806 RTS4 Q0 761961784542633984 81 11,125313 Run-ID
20160811 RTS4 Q0 763779331680309250 82 11,125313 Run-ID
20160807 RTS4 Q0 762160703620861952 83 11,076637 Run-ID
20160807 RTS4 Q0 762078277146030080 84 11,076637 Run-ID
20160809 RTS4 Q0 763088773076910080 85 11,076637 Run-ID
20160809 RTS4 Q0 762950986012983296 86 11,076637 Run-ID
20160810 RTS4 Q0 763506206983892992 87 11,076637 Run-ID
20160806 RTS4 Q0 761899494946381824 88 11,076637 Run-ID
20160806 RTS4 Q0 762000049199050752 89 11,076637 Run-ID
20160806 RTS4 Q0 761995682928467968 90 11,076637 Run-ID
20160806 RTS4 Q0 761740149147463681 91 11,076637 Run-ID
20160811 RTS4 Q0 763779751114838017 92 11,076637 Run-ID
20160806 RTS4 Q0 762041577002774528 93 10,995873 Run-ID
20160807 RTS4 Q0 762095725479989252 94 10,883675 Run-ID
20160809 RTS4 Q0 762886431475851265 95 10,744961 Run-ID
20160808 RTS4 Q0 762564396987973633 96 10,536458 Run-ID
20160807 RTS4 Q0 762079095031209984 97 10,525833 Run-ID
