20160810 RTS44 Q0 763206205187715073 1 18,794939 Run-ID
20160803 RTS44 Q0 760905679783731200 2 17,941154 Run-ID
20160811 RTS44 Q0 763841017309171712 3 17,904602 Run-ID
20160810 RTS44 Q0 763212869949202435 4 17,094803 Run-ID
20160809 RTS44 Q0 762820580877795328 5 16,582798 Run-ID
20160809 RTS44 Q0 762995328165502976 6 16,582798 Run-ID
20160809 RTS44 Q0 762919864264716288 7 15,676735 Run-ID
20160804 RTS44 Q0 760999426668261380 8 13,941938 Run-ID
20160805 RTS44 Q0 761541162989596673 9 13,220451 Run-ID
20160806 RTS44 Q0 762008232269414401 10 13,220451 Run-ID
20160811 RTS44 Q0 763791079934009346 11 13,220451 Run-ID
20160805 RTS44 Q0 761354218657746944 12 12,563044 Run-ID
20160811 RTS44 Q0 763813297158180864 13 12,563044 Run-ID
20160809 RTS44 Q0 762801257723596801 14 11,967918 Run-ID
20160809 RTS44 Q0 762985475766300672 15 11,967918 Run-ID
20160808 RTS44 Q0 762445828220784641 16 11,967918 Run-ID
20160810 RTS44 Q0 763309074696007680 17 11,426628 Run-ID
20160810 RTS44 Q0 763172734633283585 18 11,426628 Run-ID
20160804 RTS44 Q0 761311810045767680 19 11,426628 Run-ID
20160806 RTS44 Q0 761750110602727424 20 11,287632 Run-ID
20160804 RTS44 Q0 761222823679524864 21 10,932181 Run-ID
20160803 RTS44 Q0 760832933783543808 22 10,932181 Run-ID
20160811 RTS44 Q0 763848021805191168 23 10,932181 Run-ID
20160807 RTS44 Q0 762083285144997889 24 10,478752 Run-ID
20160809 RTS44 Q0 763074952853585920 25 10,478752 Run-ID
20160809 RTS44 Q0 763037548050513920 26 10,478752 Run-ID
20160808 RTS44 Q0 762585683089248256 27 10,478752 Run-ID
20160809 RTS44 Q0 763119957743853568 28 10,061437 Run-ID
20160809 RTS44 Q0 763134021240926209 29 10,061437 Run-ID
20160802 RTS44 Q0 760326362515116032 30 10,061437 Run-ID
20160802 RTS44 Q0 760447921829535746 31 10,061437 Run-ID
20160804 RTS44 Q0 761294948964536320 32 9,939047 Run-ID
20160804 RTS44 Q0 761161029002887168 33 9,939047 Run-ID
20160809 RTS44 Q0 763118804301967391 34 9,676088 Run-ID
20160809 RTS44 Q0 762952013592207360 35 9,676088 Run-ID
20160810 RTS44 Q0 763198886156599296 36 9,676088 Run-ID
20160804 RTS44 Q0 761227433215266816 37 9,676088 Run-ID
20160802 RTS44 Q0 760440388868050944 38 9,676088 Run-ID
20160805 RTS44 Q0 761352327013863424 39 9,558387 Run-ID
20160811 RTS44 Q0 763773283468582913 40 9,558387 Run-ID
20160807 RTS44 Q0 762339347429404673 41 9,319168 Run-ID
20160805 RTS44 Q0 761599723866198016 42 9,319168 Run-ID
20160804 RTS44 Q0 761292830815817729 43 9,319168 Run-ID
20160804 RTS44 Q0 761227093497749505 44 9,319168 Run-ID
20160802 RTS44 Q0 760310990374252544 45 9,319168 Run-ID
20160802 RTS44 Q0 760438761494839296 46 9,319168 Run-ID
20160811 RTS44 Q0 763773098936061954 47 9,319168 Run-ID
20160811 RTS44 Q0 763530752051048449 48 9,319168 Run-ID
20160811 RTS44 Q0 763807630645010432 49 9,205807 Run-ID
20160804 RTS44 Q0 761241211516620800 50 9,095080 Run-ID
20160802 RTS44 Q0 760283962317033473 51 9,095080 Run-ID
20160805 RTS44 Q0 761535479711805440 52 8,987642 Run-ID
20160803 RTS44 Q0 760621180130697217 53 8,723870 Run-ID
20160811 RTS44 Q0 763534774388436996 54 8,723870 Run-ID
20160810 RTS44 Q0 763211477444497409 55 8,678894 Run-ID
20160803 RTS44 Q0 760832107514068992 56 8,664236 Run-ID
20160807 RTS44 Q0 762267901629870080 57 8,390654 Run-ID
20160811 RTS44 Q0 763805923546497024 58 8,310612 Run-ID
20160803 RTS44 Q0 760744589133172736 59 8,272366 Run-ID
20160809 RTS44 Q0 762904534091837441 60 7,934735 Run-ID
20160806 RTS44 Q0 761958437504909312 61 7,934735 Run-ID
20160808 RTS44 Q0 762662510168190977 62 7,914409 Run-ID
20160810 RTS44 Q0 763353475610714112 63 7,779235 Run-ID
20160803 RTS44 Q0 760854563821871109 64 7,779235 Run-ID
20160807 RTS44 Q0 762106219607752704 65 7,586146 Run-ID
20160804 RTS44 Q0 761275915208908802 66 7,324574 Run-ID
20160803 RTS44 Q0 760882116171141120 67 7,284029 Run-ID
20160806 RTS44 Q0 761760961292304384 68 7,276523 Run-ID
20160802 RTS44 Q0 760388094289776640 69 7,261616 Run-ID
20160811 RTS44 Q0 763605314205876226 70 7,261616 Run-ID
20160807 RTS44 Q0 762073097180553216 71 7,089819 Run-ID
20160808 RTS44 Q0 762748585641324545 72 7,089819 Run-ID
20160802 RTS44 Q0 760272495068913665 73 7,089819 Run-ID
20160802 RTS44 Q0 760561532963065856 74 7,060524 Run-ID
20160810 RTS44 Q0 763399818446155780 75 6,986736 Run-ID
20160810 RTS44 Q0 763179583931842561 76 6,986736 Run-ID
20160811 RTS44 Q0 763583348639805440 77 6,986736 Run-ID
20160804 RTS44 Q0 761267958597300224 78 6,920124 Run-ID
20160811 RTS44 Q0 763799674050400257 79 6,920124 Run-ID
20160809 RTS44 Q0 763031629895901184 80 6,719147 Run-ID
20160806 RTS44 Q0 761719081179418624 81 6,718818 Run-ID
20160807 RTS44 Q0 762098502113562624 82 6,558002 Run-ID
20160808 RTS44 Q0 762443810773151744 83 6,558002 Run-ID
20160808 RTS44 Q0 762730134910545920 84 6,558002 Run-ID
20160810 RTS44 Q0 763209598383685634 85 6,558002 Run-ID
20160803 RTS44 Q0 760973078050504704 86 6,558002 Run-ID
20160809 RTS44 Q0 762815719675338752 87 6,384714 Run-ID
20160809 RTS44 Q0 762836724758130689 88 6,384714 Run-ID
20160808 RTS44 Q0 762462831937662978 89 6,384714 Run-ID
20160808 RTS44 Q0 762458696337068032 90 6,384714 Run-ID
20160805 RTS44 Q0 761684708854030336 91 6,231895 Run-ID
20160809 RTS44 Q0 763060599945297920 92 6,231895 Run-ID
20160809 RTS44 Q0 763026579920261120 93 6,231895 Run-ID
20160808 RTS44 Q0 762522105825165312 94 6,231895 Run-ID
20160808 RTS44 Q0 762596659582861312 95 6,231895 Run-ID
20160810 RTS44 Q0 763279714584760320 96 6,231895 Run-ID
20160810 RTS44 Q0 763334232122986496 97 6,231895 Run-ID
