20160810 RTS6 Q0 763489660467286016 1 10,711537 Run-ID
20160805 RTS6 Q0 761548947626135552 2 10,437530 Run-ID
20160810 RTS6 Q0 763193353857015808 3 10,437530 Run-ID
20160810 RTS6 Q0 763202103179214849 4 10,437530 Run-ID
20160807 RTS6 Q0 762136540252364800 5 9,861187 Run-ID
20160808 RTS6 Q0 762485493766295552 6 9,861187 Run-ID
20160810 RTS6 Q0 763248227919495172 7 9,861187 Run-ID
20160804 RTS6 Q0 761322320975634432 8 9,610735 Run-ID
20160807 RTS6 Q0 762328932955791363 9 9,351372 Run-ID
20160807 RTS6 Q0 762061445416775681 10 9,345163 Run-ID
20160809 RTS6 Q0 763005855868387328 11 9,345163 Run-ID
20160809 RTS6 Q0 762969981982216193 12 9,345163 Run-ID
20160808 RTS6 Q0 762484097033699328 13 9,345163 Run-ID
20160808 RTS6 Q0 762645766510743553 14 9,345163 Run-ID
20160808 RTS6 Q0 762726603331739648 15 9,345163 Run-ID
20160810 RTS6 Q0 763211519383318533 16 9,345163 Run-ID
20160810 RTS6 Q0 763188811434192896 17 9,345163 Run-ID
20160806 RTS6 Q0 761717688666353665 18 9,345163 Run-ID
20160802 RTS6 Q0 760296142542348289 19 9,345163 Run-ID
20160802 RTS6 Q0 760362735531991040 20 9,345163 Run-ID
20160811 RTS6 Q0 763759962388586496 21 9,345163 Run-ID
20160811 RTS6 Q0 763611433691062273 22 9,345163 Run-ID
20160810 RTS6 Q0 763241630304395265 23 9,293850 Run-ID
20160810 RTS6 Q0 763322844612694017 24 9,289631 Run-ID
20160810 RTS6 Q0 763181899191812096 25 9,121600 Run-ID
20160802 RTS6 Q0 760421833279545344 26 9,121600 Run-ID
20160811 RTS6 Q0 763658841900912641 27 8,997746 Run-ID
20160802 RTS6 Q0 760269462608248832 28 8,880460 Run-ID
20160803 RTS6 Q0 760673801872957441 29 8,880460 Run-ID
20160808 RTS6 Q0 762588820441329664 30 8,829189 Run-ID
20160810 RTS6 Q0 763223825479823364 31 8,558557 Run-ID
20160809 RTS6 Q0 762914310997901312 32 8,554944 Run-ID
20160807 RTS6 Q0 762316329089064961 33 8,548207 Run-ID
20160803 RTS6 Q0 760822921954725888 34 8,548207 Run-ID
20160808 RTS6 Q0 762549087778603008 35 8,460009 Run-ID
20160805 RTS6 Q0 761476843333640192 36 8,459784 Run-ID
20160805 RTS6 Q0 761684473977171974 37 8,459784 Run-ID
20160809 RTS6 Q0 762805124863406081 38 8,459784 Run-ID
20160809 RTS6 Q0 763119592801726464 39 8,459784 Run-ID
20160808 RTS6 Q0 762528246302777344 40 8,459784 Run-ID
20160810 RTS6 Q0 763190443009974272 41 8,459784 Run-ID
20160806 RTS6 Q0 761724047214477312 42 8,459784 Run-ID
20160806 RTS6 Q0 761713859241517057 43 8,459784 Run-ID
20160804 RTS6 Q0 761193044141940736 44 8,459784 Run-ID
20160804 RTS6 Q0 761050576209612802 45 8,459784 Run-ID
20160803 RTS6 Q0 760753640445513728 46 8,459784 Run-ID
20160811 RTS6 Q0 763589078038306816 47 8,459784 Run-ID
20160808 RTS6 Q0 762521711564693504 48 8,297223 Run-ID
20160804 RTS6 Q0 761185238521303040 49 8,262887 Run-ID
20160805 RTS6 Q0 761539049056153604 50 8,077160 Run-ID
20160809 RTS6 Q0 762814641743368193 51 8,077160 Run-ID
20160808 RTS6 Q0 762445249415294976 52 8,077160 Run-ID
20160808 RTS6 Q0 762449514997293056 53 8,077160 Run-ID
20160808 RTS6 Q0 762436525262983168 54 8,077160 Run-ID
20160808 RTS6 Q0 762483019110166528 55 8,077160 Run-ID
20160806 RTS6 Q0 761724990928584704 56 8,077160 Run-ID
20160803 RTS6 Q0 760845978073116672 57 8,077160 Run-ID
20160811 RTS6 Q0 763773325432750080 58 8,077160 Run-ID
20160807 RTS6 Q0 762407970424651776 59 8,048603 Run-ID
20160808 RTS6 Q0 762623285033111552 60 8,048603 Run-ID
20160810 RTS6 Q0 763320843900293121 61 8,048603 Run-ID
20160811 RTS6 Q0 763799795689328640 62 8,048603 Run-ID
20160811 RTS6 Q0 763837611521765376 63 7,730236 Run-ID
20160805 RTS6 Q0 761657781397094400 64 7,727650 Run-ID
20160805 RTS6 Q0 761682095798444032 65 7,727650 Run-ID
20160805 RTS6 Q0 761673182910701568 66 7,727650 Run-ID
20160809 RTS6 Q0 763114425452670976 67 7,727650 Run-ID
20160808 RTS6 Q0 762765509687410690 68 7,727650 Run-ID
20160810 RTS6 Q0 763189910308163584 69 7,727650 Run-ID
20160810 RTS6 Q0 763200354146131968 70 7,727650 Run-ID
20160804 RTS6 Q0 761220495849029634 71 7,727650 Run-ID
20160811 RTS6 Q0 763865855985868800 72 7,727650 Run-ID
20160809 RTS6 Q0 762982590060126212 73 7,604173 Run-ID
20160809 RTS6 Q0 762903590365229056 74 7,604173 Run-ID
20160806 RTS6 Q0 761959297324462081 75 7,604173 Run-ID
20160807 RTS6 Q0 762194916579479552 76 7,407133 Run-ID
20160805 RTS6 Q0 761423017830260736 77 7,407133 Run-ID
20160809 RTS6 Q0 763033349535432704 78 7,407133 Run-ID
20160808 RTS6 Q0 762426031084937216 79 7,407133 Run-ID
20160808 RTS6 Q0 762761982269394944 80 7,407133 Run-ID
20160810 RTS6 Q0 763441467918516224 81 7,407133 Run-ID
