20160811 RTS7 Q0 763718002575421440 1 8,829189 Run-ID
20160802 RTS7 Q0 760606902736805888 2 8,554944 Run-ID
20160808 RTS7 Q0 762498370258599936 3 8,297223 Run-ID
20160807 RTS7 Q0 762406351427469314 4 7,825716 Run-ID
20160807 RTS7 Q0 762294850050002944 5 7,825716 Run-ID
20160811 RTS7 Q0 763534233335836674 6 7,604173 Run-ID
20160807 RTS7 Q0 762082391770984448 7 7,206256 Run-ID
20160805 RTS7 Q0 761428311029395456 8 7,206256 Run-ID
20160811 RTS7 Q0 763614738815283200 9 7,206256 Run-ID
20160804 RTS7 Q0 761280696715542528 10 7,027062 Run-ID
20160807 RTS7 Q0 762355793299640321 11 6,847914 Run-ID
20160807 RTS7 Q0 762216794069340160 12 6,847914 Run-ID
20160805 RTS7 Q0 761473756321583105 13 6,847914 Run-ID
20160809 RTS7 Q0 762817011537682432 14 6,847914 Run-ID
20160808 RTS7 Q0 762645040883568641 15 6,847914 Run-ID
20160804 RTS7 Q0 761102921106763777 16 6,847914 Run-ID
20160811 RTS7 Q0 763596598433767424 17 6,847914 Run-ID
20160807 RTS7 Q0 762082077210705920 18 6,523521 Run-ID
20160807 RTS7 Q0 762409266460364800 19 6,523521 Run-ID
20160808 RTS7 Q0 762674166118150144 20 6,523521 Run-ID
20160804 RTS7 Q0 761219652802514944 21 6,523521 Run-ID
20160802 RTS7 Q0 760437033441513472 22 6,523521 Run-ID
20160807 RTS7 Q0 762136682846048257 23 6,228471 Run-ID
20160809 RTS7 Q0 762996754228785152 24 6,228471 Run-ID
20160810 RTS7 Q0 763462040971190272 25 6,228471 Run-ID
20160803 RTS7 Q0 760898658535694336 26 6,228471 Run-ID
20160803 RTS7 Q0 760967801620267008 27 6,228471 Run-ID
20160811 RTS7 Q0 763750529373704192 28 6,228471 Run-ID
20160811 RTS7 Q0 763532563977801728 29 6,228471 Run-ID
20160806 RTS7 Q0 762043388929593344 30 5,958957 Run-ID
20160806 RTS7 Q0 761812366677934080 31 5,958957 Run-ID
20160811 RTS7 Q0 763773858092548096 32 5,958957 Run-ID
20160807 RTS7 Q0 762092596521013248 33 5,711800 Run-ID
20160809 RTS7 Q0 763113175545815040 34 5,711800 Run-ID
20160808 RTS7 Q0 762455005345361920 35 5,711800 Run-ID
20160808 RTS7 Q0 762606126110126082 36 5,711800 Run-ID
20160810 RTS7 Q0 763409184360574976 37 5,711800 Run-ID
20160810 RTS7 Q0 763384077244178432 38 5,711800 Run-ID
20160804 RTS7 Q0 761156826339479552 39 5,711800 Run-ID
20160802 RTS7 Q0 760520642693169153 40 5,711800 Run-ID
20160803 RTS7 Q0 760819541362544641 41 5,711800 Run-ID
20160803 RTS7 Q0 760826604562112512 42 5,711800 Run-ID
20160803 RTS7 Q0 760671880890155008 43 5,711800 Run-ID
20160805 RTS7 Q0 761642526713360384 44 5,484328 Run-ID
20160809 RTS7 Q0 762800704083759104 45 5,484328 Run-ID
20160806 RTS7 Q0 761857459635953664 46 5,484328 Run-ID
20160807 RTS7 Q0 762098422384037888 47 5,274281 Run-ID
20160807 RTS7 Q0 762281864476274689 48 5,274281 Run-ID
20160805 RTS7 Q0 761680741038108672 49 5,274281 Run-ID
20160810 RTS7 Q0 763243849065959424 50 5,274281 Run-ID
20160806 RTS7 Q0 761714660378804225 51 5,274281 Run-ID
20160804 RTS7 Q0 761264032745533440 52 5,274281 Run-ID
20160802 RTS7 Q0 760498681300848640 53 5,274281 Run-ID
20160803 RTS7 Q0 760933014054416384 54 5,274281 Run-ID
20160805 RTS7 Q0 761691398764503040 55 5,079729 Run-ID
20160810 RTS7 Q0 763271590209523712 56 5,079729 Run-ID
20160803 RTS7 Q0 760875346581487616 57 4,730726 Run-ID
